acls:
  enable: false
  modify_groups: []
  modify_users: []
  ui_users: []
  view_groups: []
  view_users: []
file_systems: []
master:
  env:
    PYSPARK_DRIVER_PYTHON: venv/bin/python
    PYSPARK_PYTHON: venv/bin/python
    SPARK_CONF_DIR: /etc/spark3/conf
    SPARK_HOME: /usr/lib/spark3
  files:
    airflow.keytab:
      size: 0
      source: file:///pytest/path/to/airflow.keytab
      timestamp: 0
      type: FILE
      visibility: APPLICATION
    venv:
      size: 0
      source: hdfs:///wmf/cache/artifacts/airflow/search/discolytics-0.17.0.conda.tgz
      timestamp: 0
      type: ARCHIVE
      visibility: APPLICATION
  log_level: INFO
  resources:
    fpgas: 0
    gpus: 0
    memory: 4096
    vcores: 1
  script: spark3-submit --driver-cores 2 --conf spark.executorEnv.PYSPARK_DRIVER_PYTHON=venv/bin/python
    --conf spark.executorEnv.PYSPARK_PYTHON=venv/bin/python --conf spark.executorEnv.SPARK_HOME=/usr/lib/spark3
    --conf spark.executorEnv.SPARK_CONF_DIR=/etc/spark3/conf --master yarn --conf
    spark.dynamicAllocation.enabled=true --conf spark.dynamicAllocation.maxExecutors=36
    --conf spark.shuffle.service.enabled=true --conf spark.yarn.maxAppAttempts=1 --conf
    spark.executor.extraJavaOptions=-XX:MaxDirectMemorySize=1024M --conf spark.executor.memoryOverhead=4g
    --conf spark.yarn.appMasterEnv.SPARK_CONF_DIR=/etc/spark3/conf --conf spark.yarn.appMasterEnv.SPARK_HOME=/usr/lib/spark3
    --conf spark.yarn.appMasterEnv.PYSPARK_PYTHON=venv/bin/python --conf spark.yarn.appMasterEnv.PYSPARK_DRIVER_PYTHON=venv/bin/python
    --archives 'hdfs:///wmf/cache/artifacts/airflow/search/discolytics-0.17.0.conda.tgz#venv'
    --executor-cores 1 --executor-memory 4g --driver-memory 8g --keytab airflow.keytab
    --principal airflow --name cirrus_check_consistency_monthly__inconsistency_check_codfw__20230903
    --queue production --deploy-mode cluster venv/bin/check_cirrus_index_consistency.py
    --push-gw-endpoint prometheus-pushgateway.discovery.wmnet --index-partition-before
    discovery.cirrus_index_without_content/cirrus_replica=codfw/snapshot=20230820
    --index-partition-after discovery.cirrus_index_without_content/cirrus_replica=codfw/snapshot=20230827
    --page-table-partition wmf_raw.mediawiki_page/snapshot=2023-08 --output discovery.cirrus_index_inconsistencies/snapshot=2023-08
max_attempts: 1
name: Airflow SparkSkeinSubmitHook skein launcher cirrus_check_consistency_monthly__inconsistency_check_codfw__20230903
node_label: ''
queue: production
services: {}
tags: []
user: ''
