acls:
  enable: false
  modify_groups: []
  modify_users: []
  ui_users: []
  view_groups: []
  view_users: []
file_systems: []
master:
  env:
    SPARK_CONF_DIR: /etc/spark3/conf
    SPARK_HOME: /usr/lib/spark3
  files:
    airflow.keytab:
      size: 0
      source: file:///pytest/path/to/airflow.keytab
      timestamp: 0
      type: FILE
      visibility: APPLICATION
  log_level: INFO
  resources:
    fpgas: 0
    gpus: 0
    memory: 3815
    vcores: 2
  script: spark3-submit --driver-cores 2 --conf spark.executorEnv.SPARK_HOME=/usr/lib/spark3
    --conf spark.executorEnv.SPARK_CONF_DIR=/etc/spark3/conf --master yarn --conf
    spark.dynamicAllocation.maxExecutors=128 --conf spark.driver.memory=2g --conf
    spark.driver.cores=1 --conf spark.executor.memory=6g --conf spark.executor.cores=2
    --conf spark.executor.memoryOverhead=2048 --conf spark.memory.fraction=0.8 --conf
    spark.hadoop.fs.permissions.umask-mode=027 --conf spark.yarn.appMasterEnv.SPARK_CONF_DIR=/etc/spark3/conf
    --conf spark.yarn.appMasterEnv.SPARK_HOME=/usr/lib/spark3 --executor-cores 2 --executor-memory
    4G --driver-memory 4G --keytab airflow.keytab --principal airflow --name hdfs_usage_weekly__aggregate_and_extract_fsimage_data_to_parquet__20221219
    --class org.wikimedia.analytics.refinery.job.HdfsXMLFsImageConverter --queue production
    --deploy-mode client hdfs:///wmf/cache/artifacts/airflow/analytics/refinery-job-0.2.10-shaded.jar
    --fsimage_xml_path /wmf/data/raw/hdfs/xml_fsimage/fsimage_2022-12-19.xml --output_table
    wmf.hdfs_usage --snapshot 2022-12-19 --checkpoints_dir hdfs:///tmp/pytest_user_HdfsXMLFsImageConverter_2022-12-19
max_attempts: 1
name: Airflow SparkSkeinSubmitHook skein launcher hdfs_usage_weekly__aggregate_and_extract_fsimage_data_to_parquet__20221219
node_label: ''
queue: production
services: {}
tags: []
user: ''
