acls:
  enable: false
  modify_groups: []
  modify_users: []
  ui_users: []
  view_groups: []
  view_users: []
file_systems: []
master:
  env:
    SPARK_CONF_DIR: /etc/spark3/conf
    SPARK_HOME: /usr/lib/spark3
  files:
    airflow.keytab:
      size: 0
      source: file:///pytest/path/to/airflow.keytab
      timestamp: 0
      type: FILE
      visibility: APPLICATION
  log_level: INFO
  resources:
    fpgas: 0
    gpus: 0
    memory: 3815
    vcores: 2
  script: spark3-submit --driver-cores 2 --conf spark.executorEnv.SPARK_HOME=/usr/lib/spark3
    --conf spark.executorEnv.SPARK_CONF_DIR=/etc/spark3/conf --master yarn --conf
    spark.dynamicAllocation.enabled=true --conf spark.dynamicAllocation.maxExecutors=16
    --conf spark.shuffle.service.enabled=true --conf spark.yarn.maxAppAttempts=1 --conf
    spark.yarn.appMasterEnv.SPARK_CONF_DIR=/etc/spark3/conf --conf spark.yarn.appMasterEnv.SPARK_HOME=/usr/lib/spark3
    --executor-cores 2 --executor-memory 4G --driver-memory 4G --keytab airflow.keytab
    --principal airflow --name anomaly_detection_useragent_distribution_daily__detect_anomalies__20220615
    --class org.wikimedia.analytics.refinery.job.dataquality.RSVDAnomalyDetection
    --queue production --deploy-mode client hdfs:///wmf/cache/artifacts/airflow/analytics/refinery-job-0.2.1-shaded.jar
    --source-table wmf.anomaly_detection --metric-source useragent_distribution --last-data-point-dt
    2022-06-15 --output-path /wmf/tmp/analytics/anomaly_detection/anomaly_detection_useragent_distribution_daily__2022-06-15
    --deviation-threshold 10 --rsvd-oversample 1
max_attempts: 1
name: Airflow SparkSkeinSubmitHook skein launcher anomaly_detection_useragent_distribution_daily__detect_anomalies__20220615
node_label: ''
queue: production
services: {}
tags: []
user: ''
