acls:
  enable: false
  modify_groups: []
  modify_users: []
  ui_users: []
  view_groups: []
  view_users: []
file_systems: []
master:
  env:
    SPARK_CONF_DIR: /etc/spark3/conf
    SPARK_HOME: /usr/lib/spark3
  files:
    airflow.keytab:
      size: 0
      source: file:///pytest/path/to/airflow.keytab
      timestamp: 0
      type: FILE
      visibility: APPLICATION
  log_level: INFO
  resources:
    fpgas: 0
    gpus: 0
    memory: 3815
    vcores: 2
  script: spark3-submit --driver-cores 2 --conf spark.executorEnv.SPARK_HOME=/usr/lib/spark3
    --conf spark.executorEnv.SPARK_CONF_DIR=/etc/spark3/conf --master yarn --conf
    spark.dynamicAllocation.maxExecutors=64 --conf spark.executor.memoryOverhead=7G
    --conf spark.yarn.appMasterEnv.SPARK_CONF_DIR=/etc/spark3/conf --conf spark.yarn.appMasterEnv.SPARK_HOME=/usr/lib/spark3
    --executor-cores 2 --executor-memory 1G --driver-memory 4G --keytab airflow.keytab
    --principal airflow --name dump_month_of_daily_pageviews__make_dumps_for_automated__20230501
    --class org.apache.spark.sql.hive.thriftserver.WMFSparkSQLCLIDriver --queue production
    --deploy-mode client hdfs:///wmf/cache/artifacts/airflow/analytics/wmf-sparksqlclidriver-1.0.0.jar
    -f hdfs://analytics-hadoop/wmf/refinery/current/hql/pageview/monthly/make_daily_dumps.hql
    -d agent_type=automated -d source_table=wmf.pageview_hourly -d destination_directory=hdfs://analytics-hadoop/wmf/tmp/analytics/dump_month_of_daily_pageviews/2023040100/automated
    -d year=2023 -d month=4
max_attempts: 1
name: Airflow SparkSkeinSubmitHook skein launcher dump_month_of_daily_pageviews__make_dumps_for_automated__20230501
node_label: ''
queue: production
services: {}
tags: []
user: ''
