acls:
  enable: false
  modify_groups: []
  modify_users: []
  ui_users: []
  view_groups: []
  view_users: []
file_systems: []
master:
  env:
    SPARK_CONF_DIR: /etc/spark3/conf
    SPARK_HOME: /usr/lib/spark3
  files:
    airflow.keytab:
      size: 0
      source: file:///pytest/path/to/airflow.keytab
      timestamp: 0
      type: FILE
      visibility: APPLICATION
  log_level: INFO
  resources:
    fpgas: 0
    gpus: 0
    memory: 3815
    vcores: 2
  script: spark3-submit --driver-cores 2 --conf spark.executorEnv.SPARK_HOME=/usr/lib/spark3
    --conf spark.executorEnv.SPARK_CONF_DIR=/etc/spark3/conf --master yarn --conf
    spark.dynamicAllocation.maxExecutors=64 --conf spark.yarn.appMasterEnv.SPARK_CONF_DIR=/etc/spark3/conf
    --conf spark.yarn.appMasterEnv.SPARK_HOME=/usr/lib/spark3 --executor-cores 2 --executor-memory
    8G --driver-memory 4G --keytab airflow.keytab --principal airflow --name wikidata_dump_to_hive_weekly__load_to_hive__20220620
    --class org.wikimedia.analytics.refinery.job.structureddata.jsonparse.JsonDumpConverter
    --queue production --deploy-mode client hdfs:///wmf/cache/artifacts/airflow/analytics/refinery-job-0.2.1-shaded.jar
    --json-dump-path hdfs://analytics-hadoop/wmf/data/raw/wikidata/dumps/all_json/20220620
    --snapshot 2022-06-20 --output-table wmf.wikidata_entity --project-type wikidata
    --num-partitions 512
max_attempts: 1
name: Airflow SparkSkeinSubmitHook skein launcher wikidata_dump_to_hive_weekly__load_to_hive__20220620
node_label: ''
queue: production
services: {}
tags: []
user: ''
