acls:
  enable: false
  modify_groups: []
  modify_users: []
  ui_users: []
  view_groups: []
  view_users: []
file_systems: []
master:
  env:
    SPARK_CONF_DIR: /etc/spark3/conf
    SPARK_HOME: /usr/lib/spark3
  files:
    airflow.keytab:
      size: 0
      source: file:///pytest/path/to/airflow.keytab
      timestamp: 0
      type: FILE
      visibility: APPLICATION
  log_level: INFO
  resources:
    fpgas: 0
    gpus: 0
    memory: 15259
    vcores: 2
  script: spark3-submit --driver-cores 2 --conf spark.executorEnv.SPARK_HOME=/usr/lib/spark3
    --conf spark.executorEnv.SPARK_CONF_DIR=/etc/spark3/conf --master yarn --conf
    spark.dynamicAllocation.maxExecutors=90 --conf spark.yarn.appMasterEnv.SPARK_CONF_DIR=/etc/spark3/conf
    --conf spark.yarn.appMasterEnv.SPARK_HOME=/usr/lib/spark3 --executor-cores 2 --executor-memory
    16G --driver-memory 16G --keytab airflow.keytab --principal airflow --name mediawiki_history_check_denormalize__check_user_history__20230501
    --class org.wikimedia.analytics.refinery.job.mediawikihistory.MediawikiHistoryChecker
    --queue production --deploy-mode client hdfs:///wmf/cache/artifacts/airflow/analytics/refinery-job-0.2.11-shaded.jar
    --mediawiki-history-base-path hdfs://analytics-hadoop/wmf/data/wmf/mediawiki --previous-snapshot
    2023-03 --new-snapshot 2023-04 --wikis-to-check 50 --num-partitions 1024 --min-events-growth-threshold
    -0.01 --max-events-growth-threshold 1.0 --wrong-rows-ratio-threshold 0.05 --check-user-history
max_attempts: 1
name: Airflow SparkSkeinSubmitHook skein launcher mediawiki_history_check_denormalize__check_user_history__20230501
node_label: ''
queue: production
services: {}
tags: []
user: ''
