acls:
  enable: false
  modify_groups: []
  modify_users: []
  ui_users: []
  view_groups: []
  view_users: []
file_systems: []
master:
  env:
    PYSPARK_DRIVER_PYTHON: venv/bin/python
    PYSPARK_PYTHON: venv/bin/python
    SPARK_CONF_DIR: /etc/spark3/conf
    SPARK_HOME: venv/lib/python3.10/site-packages/pyspark
  files:
    airflow.keytab:
      size: 0
      source: file:///pytest/path/to/airflow.keytab
      timestamp: 0
      type: FILE
      visibility: APPLICATION
    venv:
      size: 0
      source: hdfs:///wmf/cache/artifacts/airflow/analytics/mediawiki-content-dump-0.1.0.dev0-use-rev-deleted.conda.tgz
      timestamp: 0
      type: ARCHIVE
      visibility: APPLICATION
  log_level: INFO
  resources:
    fpgas: 0
    gpus: 0
    memory: 30518
    vcores: 4
  script: venv/bin/spark-submit --driver-cores 4 --conf spark.executorEnv.PYSPARK_DRIVER_PYTHON=venv/bin/python
    --conf spark.executorEnv.PYSPARK_PYTHON=venv/bin/python --conf spark.executorEnv.SPARK_CONF_DIR=/etc/spark3/conf
    --conf spark.executorEnv.SPARK_HOME=venv/lib/python3.10/site-packages/pyspark
    --master yarn --conf spark.executor.memoryOverhead=4G --conf spark.sql.shuffle.partitions=65536
    --conf spark.shuffle.io.retryWait=15s --conf spark.shuffle.io.maxRetries=15 --conf
    spark.network.timeout=600s --conf spark.driver.maxResultSize=8G --conf spark.shuffle.file.buffer=1m
    --conf spark.shuffle.service.index.cache.size=256m --conf spark.io.compression.lz4.blockSize=512KB
    --conf spark.shuffle.service.enabled=False --conf spark.dynamicAllocation.enabled=False
    --conf spark.sql.adaptive.coalescePartitions.enabled=False --conf spark.jars.packages=org.apache.iceberg:iceberg-spark-runtime-3.3_2.12:1.2.1
    --conf 'spark.driver.extraJavaOptions=-Divy.cache.dir=/tmp/ivy_spark3/cache -Divy.home=/tmp/ivy_spark3/home'
    --conf spark.jars.ivySettings=/etc/maven/ivysettings.xml --conf spark.yarn.archive=hdfs:///user/xcollazo/artifacts/spark-3.3.2-assembly.zip
    --conf spark.yarn.appMasterEnv.SPARK_HOME=venv/lib/python3.10/site-packages/pyspark
    --conf spark.yarn.appMasterEnv.SPARK_CONF_DIR=/etc/spark3/conf --conf spark.yarn.appMasterEnv.PYSPARK_PYTHON=venv/bin/python
    --conf spark.yarn.appMasterEnv.PYSPARK_DRIVER_PYTHON=venv/bin/python --archives
    'hdfs:///wmf/cache/artifacts/airflow/analytics/mediawiki-content-dump-0.1.0.dev0-use-rev-deleted.conda.tgz#venv'
    --num-executors 105 --executor-cores 2 --executor-memory 20G --driver-memory 32G
    --keytab airflow.keytab --principal airflow --name dumps_merge_backfill_to_wikitext_raw_enwiki__spark_backfill_merge_into_2023__20230901
    --queue production --deploy-mode client venv/bin/backfill_merge_into.py --backfill_source_table
    wmf.mediawiki_wikitext_history --visibility_source_table wmf_raw.mediawiki_revision
    --target_table wmf_dumps.wikitext_raw_rc1 --snapshot 2023-08 --wiki_dbs enwiki
    --years 2023
max_attempts: 1
name: Airflow SparkSkeinSubmitHook skein launcher dumps_merge_backfill_to_wikitext_raw_enwiki__spark_backfill_merge_into_2023__20230901
node_label: ''
queue: production
services: {}
tags: []
user: ''
