acls:
  enable: false
  modify_groups: []
  modify_users: []
  ui_users: []
  view_groups: []
  view_users: []
file_systems: []
master:
  env:
    SPARK_CONF_DIR: /etc/spark3/conf
    SPARK_HOME: /usr/lib/spark3
  files:
    airflow.keytab:
      size: 0
      source: file:///pytest/path/to/airflow.keytab
      timestamp: 0
      type: FILE
      visibility: APPLICATION
  log_level: INFO
  resources:
    fpgas: 0
    gpus: 0
    memory: 3815
    vcores: 2
  script: spark3-submit --driver-cores 2 --conf spark.executorEnv.SPARK_HOME=/usr/lib/spark3
    --conf spark.executorEnv.SPARK_CONF_DIR=/etc/spark3/conf --master yarn --conf
    spark.dynamicAllocation.maxExecutors=64 --conf spark.yarn.appMasterEnv.SPARK_CONF_DIR=/etc/spark3/conf
    --conf spark.yarn.appMasterEnv.SPARK_HOME=/usr/lib/spark3 --executor-cores 2 --executor-memory
    4G --driver-memory 4G --keytab airflow.keytab --principal airflow --name mediarequest_hourly__task__20220614
    --class org.apache.spark.sql.hive.thriftserver.WMFSparkSQLCLIDriver --queue production
    --deploy-mode client hdfs:///wmf/cache/artifacts/airflow/analytics/wmf-sparksqlclidriver-1.0.0.jar
    -f hdfs://analytics-hadoop/wmf/refinery/current/hql/mediarequest/hourly.hql -d
    source_table=wmf.webrequest -d destination_table=wmf.mediarequest -d refinery_hive_shaded=hdfs:///wmf/cache/artifacts/airflow/analytics/refinery-hive-0.2.1-shaded.jar
    -d coalesce_partitions=64 -d year=2022 -d month=6 -d day=14 -d hour=9
max_attempts: 1
name: Airflow SparkSkeinSubmitHook skein launcher mediarequest_hourly__task__20220614
node_label: ''
queue: production
services: {}
tags: []
user: ''
