acls:
  enable: false
  modify_groups: []
  modify_users: []
  ui_users: []
  view_groups: []
  view_users: []
file_systems: []
master:
  env: {}
  files:
    airflow.keytab:
      size: 0
      source: file:///pytest/path/to/airflow.keytab
      timestamp: 0
      type: FILE
      visibility: APPLICATION
    venv:
      size: 0
      source: hdfs:///wmf/cache/artifacts/airflow/search/discolytics-0.17.0.conda.tgz
      timestamp: 0
      type: ARCHIVE
      visibility: APPLICATION
  log_level: INFO
  resources:
    fpgas: 0
    gpus: 0
    memory: 2048
    vcores: 1
  script: kinit -k -t airflow.keytab airflow && venv/bin/python venv/bin/drop_dated_directories.py
    --verbose --delete-after-days 60 hdfs://analytics-hadoop/wmf/data/discovery/glent/esbulk
    hdfs://analytics-hadoop/wmf/data/discovery/mjolnir/trained_models hdfs://analytics-hadoop/wmf/data/discovery/mjolnir/training_files
    hdfs://analytics-hadoop/wmf/data/discovery/transfer_to_es hdfs://analytics-hadoop/wmf/data/discovery/wdqs/entity_revision_map
max_attempts: 1
name: drop_old_data_daily__drop_dated_directories__20230303
node_label: ''
queue: production
services: {}
tags: []
user: ''
