acls:
  enable: false
  modify_groups: []
  modify_users: []
  ui_users: []
  view_groups: []
  view_users: []
file_systems: []
master:
  env: {}
  files:
    airflow.keytab:
      size: 0
      source: file:///pytest/path/to/airflow.keytab
      timestamp: 0
      type: FILE
      visibility: APPLICATION
    hdfs_tools_shaded_jar_path:
      size: 0
      source: hdfs:///wmf/cache/artifacts/airflow/analytics/hdfs-tools-0.0.6-shaded.jar
      timestamp: 0
      type: FILE
      visibility: APPLICATION
  log_level: INFO
  resources:
    fpgas: 0
    gpus: 0
    memory: 1024
    vcores: 1
  script: kinit -k -t airflow.keytab airflow && java -cp hdfs_tools_shaded_jar_path:$(hadoop
    classpath) org.wikimedia.analytics.hdfstools.HDFSArchiver --source_directory "/wmf/tmp/analytics/unique_devices_monthly/per_project_family/2022-10"
    --archive_file "hdfs://analytics-hadoop/wmf/data/archive/unique_devices/per_project_family/2022/2022-10/unique_devices_per_project_family_monthly-2022-10.gz"
    --archive_parent_umask 022 --archive_perms 644 --expected_filename_ending ".gz"
    --check_done true --done_file "_SUCCESS"
max_attempts: 1
name: unique_devices_monthly__move_per_project_family_data_to_archive__20221101
node_label: ''
queue: production
services: {}
tags: []
user: ''
