acls:
  enable: false
  modify_groups: []
  modify_users: []
  ui_users: []
  view_groups: []
  view_users: []
file_systems: []
master:
  env: {}
  files:
    airflow.keytab:
      size: 0
      source: file:///pytest/path/to/airflow.keytab
      timestamp: 0
      type: FILE
      visibility: APPLICATION
    hdfs_tools_shaded_jar_path:
      size: 0
      source: hdfs:///wmf/cache/artifacts/airflow/analytics/hdfs-tools-0.0.6-shaded.jar
      timestamp: 0
      type: FILE
      visibility: APPLICATION
  log_level: INFO
  resources:
    fpgas: 0
    gpus: 0
    memory: 1024
    vcores: 1
  script: kinit -k -t airflow.keytab airflow && java -cp hdfs_tools_shaded_jar_path:$(hadoop
    classpath) org.wikimedia.analytics.hdfstools.HDFSArchiver --source_directory "hdfs://analytics-hadoop/wmf/tmp/analytics/geoeditors/20240101T000000-all-wikipedias"
    --archive_file "hdfs://analytics-hadoop/wmf/data/archive/geoeditors/edits/yearly/geoeditors-edits-2023-all-wikipedias.csv"
    --archive_parent_umask 027 --archive_perms 640 --expected_filename_ending ".csv"
    --check_done true --done_file "_SUCCESS"
max_attempts: 1
name: geoeditors_yearly__move_all_wikipedias_data_to_archive__20240101
node_label: ''
queue: production
services: {}
tags: []
user: ''
