acls:
  enable: false
  modify_groups: []
  modify_users: []
  ui_users: []
  view_groups: []
  view_users: []
file_systems: []
master:
  env: {}
  files:
    airflow.keytab:
      size: 0
      source: file:///pytest/path/to/airflow.keytab
      timestamp: 0
      type: FILE
      visibility: APPLICATION
    config.yaml:
      size: 0
      source: file:///pytest/path/to/analytics/dags/datahub/ingestion/configs/hive_wmf_product.yaml
      timestamp: 0
      type: FILE
      visibility: APPLICATION
    environment:
      size: 0
      source: hdfs:///wmf/cache/artifacts/airflow/analytics/datahub-cli-0.10.4.tgz
      timestamp: 0
      type: ARCHIVE
      visibility: APPLICATION
  log_level: INFO
  resources:
    fpgas: 0
    gpus: 0
    memory: 1024
    vcores: 1
  script: kinit -k -t airflow.keytab airflow && REQUESTS_CA_BUNDLE=/etc/ssl/certs/ca-certificates.crt
    ./environment/bin/python environment/bin/datahub ingest -c config.yaml
max_attempts: 1
name: metadata_ingest_daily__run_hive_wmf_product_ingestion__20220630
node_label: ''
queue: production
services: {}
tags: []
user: ''
